
<svg width="93px" height="120px" viewBox="0 0 93 120" version="1.1" xmlns="http://www.w3.org/2000/svg" xmlns:xlink="http://www.w3.org/1999/xlink">
    <!-- Generator: Sketch 47.1 (45422) - http://www.bohemiancoding.com/sketch -->
    <desc>Created with Sketch.</desc>
    <defs></defs>
    <g id="V1" stroke="none" stroke-width="1" fill="none" fill-rule="evenodd">
        <g id="B02" transform="translate(-141.000000, -272.000000)" fill="#BFBFBF">
            <g id="Group" transform="translate(141.000000, 272.000000)">
                <g id="river-trail" transform="translate(16.000000, 0.000000)" fill-rule="nonzero">
                    <path d="M55.4091218,76.3742 C55.3578526,76.3732 50.2207949,76.2602 44.708359,74.8128 C39.7849231,73.5202 33.5626667,70.8736 31.8807179,65.6068 C28.8834551,56.2218 38.8082244,42.9254 46.7829744,32.2416 C52.8979231,24.0496 57.7277628,17.579 57.3700705,13.0784 C57.1512821,10.3254 54.9310064,7.6938 50.7710449,5.2566 C47.6772051,3.444 43.463391,1.694 38.2466474,0.0548 C37.6179038,-0.1426 36.9494167,0.21 36.7530833,0.8426 C36.5569487,1.4752 36.9072885,2.1482 37.5358333,2.3456 C52.3391282,6.997 54.8272756,11.1864 54.9928077,13.2696 C55.2785641,16.864 50.2257628,23.6334 44.8762756,30.8 C36.1386474,42.5058 26.2353397,55.7734 29.6103654,66.341 C33.4042885,78.2208 54.4691859,78.7566 55.3640128,78.7736 C55.3717628,78.7736 55.3793141,78.7738 55.3868654,78.7738 C56.0348846,78.7738 56.5662564,78.2514 56.5785769,77.5964 C56.5912949,76.934 56.0674744,76.3866 55.4091218,76.3742 Z" id="Shape"></path>
                    <path d="M39.8254615,17.9534 C40.6274872,15.5322 40.3949872,13.2 39.1347179,11.0222 C34.8398269,3.5994 19.6955321,0.524 19.0528782,0.3966 C18.4070449,0.2682 17.779891,0.692 17.6527115,1.3422 C17.5255321,1.9924 17.9462179,2.6234 18.5924487,2.7514 C18.629609,2.7588 22.3458333,3.5036 26.5163269,5.0834 C31.897609,7.1218 35.5486538,9.593 37.0744103,12.23 C37.9873205,13.8078 38.1472885,15.4318 37.5634551,17.1946 C36.741359,19.6766 31.3344423,24.2804 25.6099744,29.1544 C19.2577564,34.5628 12.0582051,40.6928 6.88160256,47.1352 C0.650403846,54.8902 -1.26583333,61.46 1.02339744,67.2198 C3.04833333,72.3152 6.26517949,76.414 10.8571538,79.7504 C11.068391,79.9038 11.3122179,79.9776 11.5540577,79.9776 C11.9238718,79.9776 12.2887179,79.8048 12.5218141,79.4798 C12.9071282,78.9424 12.7869038,78.1924 12.2529487,77.8046 C8.03853846,74.7424 5.08936538,70.9886 3.2373141,66.3284 C-1.21158333,55.1344 15.180859,41.1776 27.1498397,30.9866 C33.6542756,25.4484 38.7919295,21.074 39.8254615,17.9534 Z" id="Shape"></path>
                    <path d="M9.32285256,25.6378 C8.90892308,26.1534 8.98860897,26.9088 9.50070513,27.3254 C10.0128013,27.742 10.763359,27.6618 11.1774872,27.1464 L13.3141026,24.4856 L13.3141026,30.1402 C13.3141026,30.8028 13.847859,31.3402 14.5064103,31.3402 C15.1649615,31.3402 15.6987179,30.8028 15.6987179,30.1402 L15.6987179,24.4856 L17.8353333,27.1464 C18.0710128,27.4398 18.4155897,27.5922 18.7633462,27.5922 C19.0264487,27.5922 19.2913397,27.505 19.5121154,27.3256 C20.0242115,26.909 20.1038974,26.1536 19.6899679,25.638 L15.6987179,20.6672 L15.6987179,18.4162 L17.8353333,21.0772 C18.0710128,21.3706 18.4155897,21.523 18.7633462,21.523 C19.0264487,21.523 19.2913397,21.4358 19.5121154,21.2564 C20.0242115,20.8398 20.1038974,20.0844 19.6899679,19.5688 L15.6987179,14.598 L15.6987179,12.3468 L17.8353333,15.0076 C18.0710128,15.301 18.4155897,15.4534 18.7633462,15.4534 C19.0264487,15.4534 19.2913397,15.366 19.5121154,15.1868 C20.0242115,14.7702 20.1038974,14.0146 19.6899679,13.4992 L15.4338269,8.1986 C15.2074872,7.9166 14.8666859,7.7528 14.5064103,7.7528 C14.1461346,7.7528 13.8055321,7.9166 13.5789936,8.1986 L9.32285256,13.4992 C8.90892308,14.0146 8.98860897,14.7702 9.50070513,15.1868 C10.0128013,15.6032 10.763359,15.5232 11.1774872,15.0076 L13.3141026,12.3468 L13.3141026,14.598 L9.32285256,19.5686 C8.90892308,20.0842 8.98860897,20.8396 9.50070513,21.2562 C10.0128013,21.6728 10.763359,21.5926 11.1774872,21.0772 L13.3141026,18.4162 L13.3141026,20.6672 L9.32285256,25.6378 Z" id="Shape"></path>
                    <path d="M59.7672051,52.1224 C60.0028846,52.4158 60.3474615,52.5682 60.6952179,52.5682 C60.9583205,52.5682 61.2232115,52.481 61.4439872,52.3016 C61.9560833,51.885 62.0357692,51.1296 61.6218397,50.614 L55.4423077,42.9182 L55.4423077,37.5468 L59.7670064,42.9326 C60.0026859,43.226 60.3472628,43.3784 60.6950192,43.3784 C60.9581218,43.3784 61.2230128,43.2912 61.4437885,43.1118 C61.9558846,42.6952 62.0355705,41.9398 61.621641,41.4242 L55.1772179,33.3986 C54.9508782,33.1168 54.6100769,32.9528 54.2498013,32.9528 C53.8895256,32.9528 53.5489231,33.1166 53.3223846,33.3986 L46.8779615,41.4242 C46.4640321,41.9398 46.5437179,42.6952 47.0558141,43.1118 C47.5679103,43.5284 48.3184679,43.4482 48.7325962,42.9328 L53.0576923,37.547 L53.0576923,42.9184 L46.878359,50.614 C46.4644295,51.1296 46.5441154,51.885 47.0562115,52.3016 C47.5683077,52.7182 48.3188654,52.638 48.7329936,52.1226 L53.0576923,46.7366 L53.0576923,52.108 L46.878359,59.8036 C46.4644295,60.3192 46.5441154,61.0746 47.0562115,61.4912 C47.5683077,61.9078 48.3188654,61.8276 48.7329936,61.3122 L53.0576923,55.9262 L53.0576923,66.2402 C53.0576923,66.9028 53.5916474,67.4402 54.25,67.4402 C54.9083526,67.4402 55.4423077,66.9028 55.4423077,66.2402 L55.4423077,55.9262 L59.7670064,61.312 C60.0026859,61.6054 60.3472628,61.7578 60.6950192,61.7578 C60.9581218,61.7578 61.2230128,61.6706 61.4437885,61.4912 C61.9558846,61.0746 62.0355705,60.3192 61.621641,59.8036 L55.4423077,52.108 L55.4423077,46.7366 L59.7672051,52.1224 Z" id="Shape"></path>
                </g>
                <text id="TrailFinder" font-family=".SFNSDisplay, .SF NS Display" font-size="20" font-weight="normal">
                    <tspan x="0.69140625" y="119">TrailFinder</tspan>
                </text>
            </g>
        </g>
    </g>
</svg>